<svg width="103" height="103" viewBox="0 0 103 103" fill="none" xmlns="http://www.w3.org/2000/svg">
<rect x="0.5" y="0.5" width="102" height="102" rx="9.5" stroke="#7E858E" stroke-dasharray="5 5"/>
<path d="M33.8342 70.21H31.9342V76H30.5542V70.21H28.6542V69H33.8342V70.21ZM34.7429 68.57H36.1429V71.53H36.2129C36.3329 71.27 36.5262 71.05 36.7929 70.87C37.0595 70.6833 37.3829 70.59 37.7629 70.59C38.4495 70.59 38.9329 70.81 39.2129 71.25C39.4995 71.69 39.6429 72.19 39.6429 72.75V76H38.2629V72.98C38.2629 72.5933 38.1695 72.29 37.9829 72.07C37.8029 71.85 37.5429 71.74 37.2029 71.74C36.8695 71.74 36.6095 71.8533 36.4229 72.08C36.2362 72.3067 36.1429 72.6067 36.1429 72.98V76H34.7429V68.57ZM43.1282 76.08C42.5749 76.08 42.1082 75.9533 41.7282 75.7C41.3482 75.44 41.0649 75.1033 40.8782 74.69C40.6982 74.27 40.6082 73.82 40.6082 73.34C40.6082 72.86 40.6982 72.4133 40.8782 72C41.0649 71.58 41.3482 71.24 41.7282 70.98C42.1082 70.72 42.5782 70.59 43.1382 70.59C43.8782 70.59 44.4649 70.8267 44.8982 71.3C45.3382 71.7733 45.5582 72.4567 45.5582 73.35V73.73H41.9382V73.81C41.9382 74.13 42.0482 74.4067 42.2682 74.64C42.4882 74.8667 42.7649 74.98 43.0982 74.98C43.3582 74.98 43.5782 74.92 43.7582 74.8C43.9382 74.68 44.0682 74.5167 44.1482 74.31H45.5082C45.3682 74.83 45.0949 75.2567 44.6882 75.59C44.2816 75.9167 43.7616 76.08 43.1282 76.08ZM44.2282 72.83C44.2149 72.41 44.1082 72.1 43.9082 71.9C43.7082 71.7 43.4449 71.6 43.1182 71.6C42.7716 71.6 42.4982 71.71 42.2982 71.93C42.0982 72.15 41.9916 72.45 41.9782 72.83H44.2282ZM42.6382 68.5H43.6582L45.0982 70.08H43.8282L43.1582 69.35H43.1182L42.4682 70.08H41.2082L42.6382 68.5ZM46.53 70.72H47.92V71.57H47.99C48.0633 71.3833 48.2166 71.1733 48.45 70.94C48.6833 70.7067 49.0233 70.59 49.47 70.59C49.8166 70.59 50.1066 70.67 50.34 70.83C50.5733 70.99 50.7433 71.16 50.85 71.34C50.9633 71.5133 51.03 71.64 51.05 71.72H51.12C51.2 71.5067 51.3666 71.2667 51.62 71C51.8733 70.7267 52.2633 70.59 52.79 70.59C53.25 70.59 53.6133 70.71 53.88 70.95C54.1533 71.1833 54.3433 71.4667 54.45 71.8C54.5633 72.1267 54.62 72.4433 54.62 72.75V76H53.23V72.89C53.23 72.53 53.1366 72.2567 52.95 72.07C52.7633 71.8833 52.5366 71.79 52.27 71.79C51.9966 71.79 51.76 71.8867 51.56 72.08C51.3666 72.2733 51.27 72.5433 51.27 72.89V76H49.88V72.89C49.88 72.53 49.7866 72.2567 49.6 72.07C49.4133 71.8833 49.1866 71.79 48.92 71.79C48.6466 71.79 48.41 71.8867 48.21 72.08C48.0166 72.2733 47.92 72.5433 47.92 72.89V76H46.53V70.72ZM59.9039 76.08C59.2505 76.08 58.7405 75.83 58.3739 75.33C58.0072 74.83 57.8239 74.17 57.8239 73.35C57.8239 72.5167 58.0072 71.85 58.3739 71.35C58.7472 70.8433 59.2672 70.59 59.9339 70.59C60.3805 70.59 60.7305 70.6933 60.9839 70.9C61.2372 71.1 61.4172 71.3133 61.5239 71.54H61.6039V70.72H62.9939V76H61.6039V75.09H61.5239C61.4039 75.3367 61.2172 75.5633 60.9639 75.77C60.7105 75.9767 60.3572 76.08 59.9039 76.08ZM60.4139 74.96C60.8072 74.96 61.1039 74.8 61.3039 74.48C61.5039 74.16 61.6039 73.7767 61.6039 73.33C61.6039 72.8833 61.5039 72.5033 61.3039 72.19C61.1105 71.8767 60.8139 71.72 60.4139 71.72C60.0139 71.72 59.7172 71.8767 59.5239 72.19C59.3305 72.5033 59.2339 72.8833 59.2339 73.33C59.2339 73.7833 59.3305 74.17 59.5239 74.49C59.7172 74.8033 60.0139 74.96 60.4139 74.96ZM59.9839 69.97C60.0039 69.91 60.0439 69.8533 60.1039 69.8C60.1639 69.74 60.2539 69.6667 60.3739 69.58C60.5405 69.4667 60.6672 69.3667 60.7539 69.28C60.8405 69.1867 60.8839 69.08 60.8839 68.96C60.8839 68.8667 60.8539 68.7933 60.7939 68.74C60.7405 68.68 60.6572 68.65 60.5439 68.65C60.4439 68.65 60.3639 68.68 60.3039 68.74C60.2505 68.7933 60.2172 68.8667 60.2039 68.96H59.2239C59.2372 68.6733 59.3505 68.4267 59.5639 68.22C59.7772 68.0133 60.1039 67.91 60.5439 67.91C60.9439 67.91 61.2505 68.0033 61.4639 68.19C61.6839 68.37 61.7939 68.6033 61.7939 68.89C61.7939 69.09 61.7472 69.25 61.6539 69.37C61.5605 69.49 61.4339 69.6133 61.2739 69.74C61.2205 69.78 61.1705 69.82 61.1239 69.86C61.0772 69.9 61.0505 69.9367 61.0439 69.97H59.9839ZM64.2057 70.72H65.6057V71.53H65.6757C65.7957 71.27 65.9891 71.05 66.2557 70.87C66.5224 70.6833 66.8457 70.59 67.2257 70.59C67.9124 70.59 68.3957 70.81 68.6757 71.25C68.9624 71.69 69.1057 72.19 69.1057 72.75V76H67.7257V72.98C67.7257 72.5933 67.6324 72.29 67.4457 72.07C67.2657 71.85 67.0091 71.74 66.6757 71.74C66.3224 71.74 66.0557 71.8567 65.8757 72.09C65.6957 72.3167 65.6057 72.6133 65.6057 72.98V76H64.2057V70.72ZM70.28 68.57H71.68V71.53H71.75C71.87 71.27 72.0633 71.05 72.33 70.87C72.5966 70.6833 72.92 70.59 73.3 70.59C73.9866 70.59 74.47 70.81 74.75 71.25C75.0366 71.69 75.18 72.19 75.18 72.75V76H73.8V72.98C73.8 72.5933 73.7066 72.29 73.52 72.07C73.34 71.85 73.08 71.74 72.74 71.74C72.4066 71.74 72.1466 71.8533 71.96 72.08C71.7733 72.3067 71.68 72.6067 71.68 72.98V76H70.28V68.57Z" fill="#7E858E"/>
<path fill-rule="evenodd" clip-rule="evenodd" d="M50.6759 37.0841V28.4321H53.1479V37.0841H61.7999V39.5561H53.1479V48.2081H50.6759V39.5561H42.0239V37.0841H50.6759Z" fill="#7E858E"/>
</svg>
