<svg width="25" height="25" viewBox="0 0 25 25" fill="none" xmlns="http://www.w3.org/2000/svg">
<path d="M20 11.25H18.3333V2.49999C18.3333 2.26989 18.1468 2.08333 17.9167 2.08333H14.5833C14.3532 2.08333 14.1667 2.26989 14.1667 2.49999V11.25H12.5C10.6599 11.2521 9.16875 12.7432 9.16667 14.5833C9.16667 14.8134 9.35323 15 9.58334 15H9.78917L6.69917 22.3383C6.6099 22.5504 6.70943 22.7947 6.92152 22.884C6.97271 22.9056 7.02777 22.9167 7.08334 22.9167H20.4167C20.6137 22.9168 20.784 22.7787 20.8246 22.5858L22.4212 15H22.9167C23.1468 15 23.3333 14.8134 23.3333 14.5833C23.3312 12.7432 21.8401 11.2521 20 11.25ZM15 2.91666H17.5V11.25H15V2.91666ZM20.0783 22.0833H18.495L19.5621 18.8817C19.6348 18.6631 19.5165 18.4269 19.2979 18.3542C19.0793 18.2815 18.8431 18.3997 18.7704 18.6183L17.6167 22.0833H16.4112L17.4783 18.8817C17.551 18.6631 17.4328 18.4269 17.2142 18.3542C16.9956 18.2815 16.7594 18.3997 16.6867 18.6183L15.5333 22.0833H14.3279L15.395 18.8817C15.4677 18.6631 15.3494 18.4269 15.1308 18.3542C14.9122 18.2815 14.676 18.3997 14.6033 18.6183L13.45 22.0833H12.2446L13.3117 18.8817C13.3844 18.6631 13.2661 18.4269 13.0475 18.3542C12.8289 18.2815 12.5927 18.3997 12.52 18.6183L11.3667 22.0833H10.1613L11.2283 18.8817C11.301 18.6631 11.1828 18.4269 10.9642 18.3542C10.7456 18.2815 10.5094 18.3997 10.4367 18.6183L9.28334 22.0833H7.71084L10.6933 15H21.5683L20.0783 22.0833ZM10.0346 14.1667C10.2395 12.9646 11.2806 12.0848 12.5 12.0833H20C21.2194 12.0848 22.2605 12.9646 22.4654 14.1667H10.0346Z" fill="white"/>
<path d="M5.41667 22.0833H0.416667C0.186562 22.0833 0 22.2699 0 22.5C0 22.7301 0.186562 22.9167 0.416667 22.9167H5.41667C5.64677 22.9167 5.83333 22.7301 5.83333 22.5C5.83333 22.2699 5.64677 22.0833 5.41667 22.0833Z" fill="white"/>
<path d="M5.41666 19.5833H2.08333C1.85323 19.5833 1.66666 19.7699 1.66666 20C1.66666 20.2301 1.85323 20.4167 2.08333 20.4167H5.41666C5.64677 20.4167 5.83333 20.2301 5.83333 20C5.83333 19.7699 5.64677 19.5833 5.41666 19.5833Z" fill="white"/>
</svg>
